{
  "staff": [
    {
      "name": "Rev. Fr. Mark McNea",
      "photo": "images/mcnea.png",
      "title": "Rector of Cathedral, Pastor of St. Casimir, and Chaplain of the Newman Center",
      "phone": "507.452.4770 #014",
      "email": "frmark@cathedralwinona.org"
    },
    {
      "name": "Rev. Mr. Jim Welch",
      "photo": "images/welch.jpg",
      "title": "Deacon for Cathedral & St. Casimir",
      "phone": "507.452.5858",
      "email": "info@cathedralwinona.org"
    },
    {
      "name": "Mrs. Anna Therneau",
      "photo": "images/anna.jpg",
      "title": "Director of Lifelong Faith Formation and Coordinator of Parish Ministries",
      "phone": "507.452.4770 #021",
      "email": "atherneau@cathedralwinona.org"
    },
    {
      "name": "Ms. Sandy Smith",
      "photo": "images/sandy.jpg",
      "title": "Parish Secretary",
      "phone": "507.452.4770",
      "email": "info@cathedralwinona.org"
    }
  ]
}
